**** DÉBUT DU JOURNAL À Fri Jan  5 11:47:12 2018

janv. 05 11:47:12 *	Vous parlez maintenant sur #chezleo
janv. 05 11:47:12 *	Le sujet de #chezleo est : http://youlister.traquenard.net  chezleo / vache
janv. 05 11:47:12 *	Sujet de #chezleo choisi par leotrouvtou!~leob@leotrouvtou.pilotsystems.net (Wed Oct 22 17:02:22 2014)
**** FIN DU JOURNAL À Fri Jan  5 11:55:52 2018

**** DÉBUT DU JOURNAL À Fri Jan  5 12:07:57 2018

janv. 05 12:07:57 *	Vous parlez maintenant sur #chezleo
janv. 05 12:07:57 *	Le sujet de #chezleo est : http://youlister.traquenard.net  chezleo / vache
janv. 05 12:07:57 *	Sujet de #chezleo choisi par leotrouvtou!~leob@leotrouvtou.pilotsystems.net (Wed Oct 22 17:02:22 2014)
janv. 05 14:20:22 <skelkey>	Bonne année boblefrag ! De l'amour et des bisous à toi !
janv. 05 14:20:34 <boblefrag>	<3 <3 <3
janv. 05 14:21:10 *	Britney (~Britney@206.ip-158-69-214.net) vient de rentrer
**** DÉBUT DU JOURNAL À Mon Jan  8 10:05:06 2018

janv. 08 10:05:06 *	Vous parlez maintenant sur #chezleo
janv. 08 10:05:06 *	Le sujet de #chezleo est : http://youlister.traquenard.net  chezleo / vache
janv. 08 10:05:06 *	Sujet de #chezleo choisi par leotrouvtou!~leob@leotrouvtou.pilotsystems.net (Wed Oct 22 17:02:22 2014)
janv. 08 09:19:03 <rodo>	hello les copains.ines
janv. 08 10:08:54 <dim>	BONNE ANNÉES les potos
janv. 08 10:11:17 <rodo>	ah oui bonne année !
janv. 08 10:11:42 <rodo>	dim, ça sent les vacanciers ça les mecs qui souhaitent la bonne année le 8 :)
janv. 08 10:11:50 <leotrouvtou>	yop yop
janv. 08 10:14:18 <dim>	un peu ouais rodo
janv. 08 10:14:24 <dim>	mais bon c'est le jeu, c'est la vie, c'est la classe
janv. 08 10:14:27 <dim>	que dire ;-)
janv. 08 10:15:06 <rodo>	dim, pas trop dur la double reprise pour toi ?
janv. 08 10:15:20 <dim>	un peu, j'essaie de faire semblant de pas me noyer dans un verre d'eau
janv. 08 10:15:23 <leotrouvtou>	j'ai tellement de mal a revenir la
janv. 08 10:15:30 <dim>	je setup un nouveau compte GitHub, GMail, etc etc
janv. 08 10:15:34 <leotrouvtou>	je suis arrivé chez moi, les travaux avaient pas avancé, il y a des souris dans l'appart a cause des travaux , et comme le mur est pourris  et qu ela flotte passe toute une partie de la chambre est pourrie
janv. 08 10:15:43 <leotrouvtou>	genre champignon sur le mur et tout
janv. 08 10:16:03 <dim>	j'hésite à configurer Emacs/Gnus pour le nouveau compte GMail dès le premier jour, ou bien à laisser sa chance au produit histoire de voir la même chose que mes collègues quoi
janv. 08 10:16:15 <dim>	leotrouvtou: oh sympa :/
janv. 08 10:24:26 <rodo>	leotrouvtou, merdum
**** DÉBUT DU JOURNAL À Mon Jan  8 10:37:25 2018

janv. 08 10:37:25 *	Vous parlez maintenant sur #chezleo
janv. 08 10:37:25 *	Le sujet de #chezleo est : http://youlister.traquenard.net  chezleo / vache
janv. 08 10:37:25 *	Sujet de #chezleo choisi par leotrouvtou!~leob@leotrouvtou.pilotsystems.net (Wed Oct 22 17:02:22 2014)
**** FIN DU JOURNAL À Mon Jan  8 10:39:16 2018

janv. 08 10:45:25 <boblefrag>	leotrouvtou, ho pas cool
janv. 08 11:18:30 <leotrouvtou>	https://www.youtube.com/watch?v=OTzPg1bOoQM boblefrag
janv. 08 11:18:34 <Britney>	Hu Hu jolie video dis donc ! leotrouvtou
janv. 08 11:32:07 <rodo>	bonne année mon boblefrag
janv. 08 11:53:28 <boblefrag>	bonne année mon rodo 
janv. 08 11:53:43 <boblefrag>	moulte joie bonheur sur ton petit coeur et toute ta famille
janv. 08 17:23:05 <leotrouvtou>	https://www.youtube.com/watch?v=bAteB65B-6k
janv. 08 17:23:08 <Britney>	Hu Hu jolie video dis donc ! leotrouvtou
janv. 08 18:17:29 <dim>	j'avais oublié le rythme entrecoupé de réunions en visio
janv. 08 18:19:34 <rodo>	t'iquité dim ça va vite revenir tu vas voir :)
janv. 08 18:20:10 <dim>	j'étais déjà en train de causer sur Slack en // à la visio
janv. 08 18:20:17 <dim>	pfff, premier jour
janv. 08 18:20:24 <dim>	bref, j'aime bien utiliser la tablette pour les visio
janv. 08 18:20:32 <dim>	1. en règle générale ça juste marche
janv. 08 18:20:41 <dim>	2. tu peux utiliser ton ordi normalement pendant ce temps
janv. 09 09:57:28 *	Déconnecté ()
**** FIN DU JOURNAL À Tue Jan  9 09:57:28 2018

**** DÉBUT DU JOURNAL À Tue Jan  9 09:57:39 2018

janv. 09 09:57:39 *	Vous parlez maintenant sur #chezleo
janv. 09 09:57:39 *	Le sujet de #chezleo est : http://youlister.traquenard.net  chezleo / vache
janv. 09 09:57:39 *	Sujet de #chezleo choisi par leotrouvtou!~leob@leotrouvtou.pilotsystems.net (Wed Oct 22 17:02:22 2014)
janv. 09 09:55:19 <dim>	ça boome ?
janv. 09 09:58:53 <rodo>	ça boom et toi dim ?
janv. 09 09:59:14 <rodo>	on a bien fait de rentrer en fait hier la Haute Maurienne était en alerte rouge avalanche !
janv. 09 09:59:38 <dim>	ah bah on a bien fait alors… trop de neige !
janv. 09 10:00:00 <rodo>	aucune piste d'ouverte ce matin !
janv. 09 10:01:19 <dim>	ah ouais c'est la lose ça
janv. 09 10:01:33 <dim>	j'ai désinstallé les applis moi, je voulais pas avoir trop les boules à regarder tout ça
janv. 09 09:57:45 <dim>	et puis il parait qu'il faut que je code des trucs en C maintenant
janv. 09 09:58:05 <dim>	pour me faire répondre à un Survey on me dit : « According to our data (mined from GHTorrent.org), you have authored more than 2957 commits between 10/09/08 16:43 and 5/02/16 20:26, and these commits found their way into 32 public repositories. »
janv. 09 09:59:43 <boblefrag>	yo les loulous !
janv. 09 09:59:54 <boblefrag>	tu bosse dim ? Tu est où maintenant ?
janv. 09 10:01:07 <dim>	je bosse de chez moi, ce qui est cool, pour CitusData, ce qui semble assez bien cool pour le moment (2è jour)
janv. 09 10:01:22 <boblefrag>	<3 dim 
janv. 09 10:01:27 <dim>	regarde Top Teams sur https://planet.postgresql.org en haut à droite ;-)
janv. 09 10:06:27 <boblefrag>	yeah !
janv. 09 10:06:32 <boblefrag>	la clââââsse !!!
janv. 09 10:08:06 <dim>	un peu hein
janv. 09 10:08:35 <dim>	je vais refaire un tweet aujourd'hui, peut être le classique « review of 2017 » avec ce qui a bien marché et tout
**** DÉBUT DU JOURNAL À Tue Jan  9 11:26:27 2018

janv. 09 11:26:27 *	Vous parlez maintenant sur #chezleo
janv. 09 11:26:27 *	Le sujet de #chezleo est : http://youlister.traquenard.net  chezleo / vache
janv. 09 11:26:27 *	Sujet de #chezleo choisi par leotrouvtou!~leob@leotrouvtou.pilotsystems.net (Wed Oct 22 17:02:22 2014)
janv. 09 13:17:07 <dim>	 src/backend/distributed/executor/multi_utility.c | 7 +------
janv. 09 13:17:07 <dim>	 1 file changed, 1 insertion(+), 6 deletions(-)
janv. 09 13:17:09 <dim>	bon c'est un début quoi
janv. 09 13:27:02 <rodo>	humm juste une insertion ça sent le mec qui ne commente pas beaucoup ....
janv. 09 13:27:44 <dim>	-	else if (renameStmt->renameType == OBJECT_TABCONSTRAINT)
janv. 09 13:27:45 <dim>	+	if (renameStmt->renameType == OBJECT_TABCONSTRAINT)
janv. 09 13:28:37 <dim>	c'est juste un cas viré
janv. 09 17:32:25 <rodo>	yo dim tu as reçu un mail :)
janv. 09 17:35:50 <dim>	ouais ça peut m'arriver
janv. 09 17:38:01 <dim>	rib-cmb.dms — euh ok
janv. 09 17:38:29 <dim>	si je change l'extension (après avoir regardé quand même hein tu penses bien) c'est bien un PDF…
janv. 09 17:41:00 <rodo>	what ?
janv. 09 17:46:00 <dim>	j'ai reçu un fichier .dms
janv. 09 17:46:07 <dim>	avef le contenu d'un .pdf
janv. 09 17:46:25 <dim>	enfin peut être que dans vos tests c'est normal ;-)
janv. 09 17:50:22 <rodo>	oui moi qui ait uploadé de la merde
janv. 09 17:50:24 <rodo>	je check
janv. 09 17:51:15 <rodo>	moi je n'ai pas d'extension
janv. 09 17:51:44 <rodo>	allez va tant que ça marche je vais éviter de chercher sinon ça risque de m'altérer la bonne humeur encore cette histoire :)
janv. 09 18:06:56 <dim>	hehe
janv. 09 18:07:11 <dim>	ouais j'ai pu ouvrir le fichier avec Emacs et voir que c'est un PDF etc, donc ça va
janv. 10 10:05:32 *	Déconnecté ()
**** FIN DU JOURNAL À Wed Jan 10 10:05:32 2018

**** DÉBUT DU JOURNAL À Wed Jan 10 10:05:44 2018

janv. 10 10:05:44 *	Vous parlez maintenant sur #chezleo
janv. 10 10:05:44 *	Le sujet de #chezleo est : http://youlister.traquenard.net  chezleo / vache
janv. 10 10:05:44 *	Sujet de #chezleo choisi par leotrouvtou!~leob@leotrouvtou.pilotsystems.net (Wed Oct 22 17:02:22 2014)
janv. 10 14:17:44 *	Déconnecté ()
**** FIN DU JOURNAL À Wed Jan 10 14:17:44 2018

**** DÉBUT DU JOURNAL À Wed Jan 10 14:17:55 2018

janv. 10 14:17:55 *	Vous parlez maintenant sur #chezleo
janv. 10 14:17:55 *	Le sujet de #chezleo est : http://youlister.traquenard.net  chezleo / vache
janv. 10 14:17:55 *	Sujet de #chezleo choisi par leotrouvtou!~leob@leotrouvtou.pilotsystems.net (Wed Oct 22 17:02:22 2014)
