**** DÉBUT DU JOURNAL À Mon Jan  8 17:22:34 2018

[leotrouvtou has address ~leotrouvt@leotrouvtou.pilotsystems.net]
janv. 08 17:23:01 <boblefrag>	dis donc si vous avez besoin de vous loger le temps que le bordel se calme hésitez pas hein
janv. 08 17:23:15 <leotrouvtou>	ouai ouai t'inquiette pas 
janv. 08 17:23:27 <leotrouvtou>	c'est juste dur comme retour de vacacnes mais ça va
janv. 08 17:23:48 <boblefrag>	ben tu m'étonne putain!
janv. 09 09:57:28 *	Déconnecté ()
